Use Open Data from the Czech Statistical Office in R • czso
…
#> 1 110080  Prům… Datová sad… https:… Mzda     <NA>  roční           
#> 2 110079  Zamě… Datová sad… https:… zaměstn… <NA>  čtvrtletní      
#> # … with 1 more variable: spatial_coverage <chr>
get_table("110080")
#> [1] "/var/folders/c8/pj33jytj233g8vr0tw4b2h7m0000gn/T//Rtmpq8t1uU/czso/110080/ds_110080.csv"
#> Registered S3 methods overwritten by 'readr':
#>   method           from 
#>   format.col_spec  vroom
#>   print.col_spec   vroom
#>   print.collector  vroom
#>   print.date_names vroom
#>   print.locale     vroom
#>   str.col_spec     vroom
#> Warning: The following named parsers don't match the column names: ctvrtleti
#> # A tibble: 630 x 14
#>    idhod hodnota stapro_kod SPKVANTIL_cis SPKVANTIL_kod POHLAVI_cis POHLAVI_kod
#>    <chr>   <dbl> <chr>      <chr>         <chr>         <chr>       <chr>      
#>  1 7366…   21554 5958       7636          Q5            <NA>        <NA>       
#>  2 7366…   20378 5958       7636          Q5            <NA>        <NA>       
#>  3 7366…   22447 5958       7636          Q5            <NA>        <NA>       
#>  4 7366…   20266 5958       7636          Q5            <NA>        <NA>       
#>  5 7366…   27162 5958       7636          Q5            <NA>        <NA>       
#>  6 7366…   19183 5958       7636          Q5            <NA>        <NA>       
#>  7 7366…   21782 5958       7636          Q5            <NA>        <NA>       
#>  8 7366…   21383 5958       7636          Q5            <NA>        <NA>       
#>  9 7366…   20527 5958       7636          Q5            <NA>        <NA>       
#> 10 7366…   20153 5958       7636          Q5            <NA>        <NA>       
#> # … with 620 more rows, and 7 more variables: rok <int>, uzemi_cis <chr>,
#> #   uzemi_kod <chr>, STAPRO_TXT <chr>, uzemi_txt <chr>, SPKVANTIL_txt <chr>,
#> #   POHLAVI_txt <chr>
…
