…
You could also search in descriptions or keywords which are also
retrieved into the catalogue.

We can see the `dataset_id` for the required dataset - now use it to get
the dataset:

``` r
czso_get_table("110080")
#> # A tibble: 720 x 14
#>    idhod hodnota stapro_kod SPKVANTIL_cis SPKVANTIL_kod POHLAVI_cis POHLAVI_kod   rok uzemi_cis
#>    <chr>   <dbl> <chr>      <chr>         <chr>         <chr>       <chr>       <int> <chr>    
#>  1 7459…   26211 5958       <NA>          <NA>          <NA>        <NA>         2013 97       
#>  2 7459…   29026 5958       <NA>          <NA>          102         1            2013 97       
#>  3 7459…   22729 5958       <NA>          <NA>          102         2            2013 97       
#>  4 7459…   22266 5958       7636          Q5            <NA>        <NA>         2013 97       
#>  5 7459…   23955 5958       7636          Q5            102         1            2013 97       
#>  6 7459…   20271 5958       7636          Q5            102         2            2013 97       
#>  7 7459…   26033 5958       <NA>          <NA>          <NA>        <NA>         2012 97       
#>  8 7459…   28873 5958       <NA>          <NA>          102         1            2012 97       
#>  9 7459…   22496 5958       <NA>          <NA>          102         2            2012 97       
#> 10 7459…   21997 5958       7636          Q5            <NA>        <NA>         2012 97       
#> # … with 710 more rows, and 5 more variables: uzemi_kod <chr>, STAPRO_TXT <chr>, uzemi_txt <chr>,
#> #   SPKVANTIL_txt <chr>, POHLAVI_txt <chr>
```
…
