An R package for using data from the Czech Statisical Office • czso
…
catalogue %>% 
  filter(str_detect(title, "[Mm]zd[ay]")) %>% 
  select(dataset_id, title, description)
#> # A tibble: 2 x 3
#>   dataset_id title                       description                            
#>   <chr>      <chr>                       <chr>                                  
#> 1 110080     Průměrná hrubá měsíční mzd… Datová sada obsahuje časovou řadu prům…
#> 2 110079     Zaměstnanci a průměrné hru… Datová sada obsahuje časovou řadu počt…

You could also search in descriptions or keywords which are also retrieved into the catalogue.

We can see the dataset_id for the required dataset - now use it to get the dataset:

czso_get_table("110080")
#> # A tibble: 900 x 14
#>    idhod hodnota stapro_kod SPKVANTIL_cis SPKVANTIL_kod POHLAVI_cis POHLAVI_kod
#>    <chr>   <dbl> <chr>      <chr>         <chr>         <chr>       <chr>      
#>  1 7459…   26211 5958       <NA>          <NA>          <NA>        <NA>       
#>  2 7459…   29026 5958       <NA>          <NA>          102         1          
#>  3 7459…   22729 5958       <NA>          <NA>          102         2          
#>  4 7459…   22266 5958       7636          Q5            <NA>        <NA>       
#>  5 7459…   23955 5958       7636          Q5            102         1          
#>  6 7459…   20271 5958       7636          Q5            102         2          
#>  7 7459…   26033 5958       <NA>          <NA>          <NA>        <NA>       
#>  8 7459…   28873 5958       <NA>          <NA>          102         1          
#>  9 7459…   22496 5958       <NA>          <NA>          102         2          
#> 10 7459…   21997 5958       7636          Q5            <NA>        <NA>       
#> # … with 890 more rows, and 7 more variables: rok <int>, uzemi_cis <chr>,
#> #   uzemi_kod <chr>, STAPRO_TXT <chr>, uzemi_txt <chr>, SPKVANTIL_txt <chr>,
#> #   POHLAVI_txt <chr>
…
