Get catalogue of open CZSO datasets — czso_get_catalogue • czso
…
    See also

    Other Core workflow: 
czso_get_table(),
get_table()

    Examples

# \donttest{
czso_get_catalogue()
#> ℹ Reading data from data.gov.cz
#> ✔ Done downloading and reading data
#> ℹ Transforming data
#> # A tibble: 602 x 14
#>    dataset_iri dataset_id title provider description spatial temporal
#>    <chr>       <chr>      <chr> <chr>    <chr>       <chr>   <chr>   
#>  1 https://da… 060003     Vyba… Český s… Datová sad… https:… https:/…
#>  2 https://da… 270229     Skli… Český s… Datová sad… https:… https:/…
#>  3 https://da… 110080     Prům… Český s… Datová sad… https:… https:/…
#>  4 https://da… 270230     Hosp… Český s… Datová sad… https:… https:/…
#>  5 https://da… 340130     Veli… Český s… Datová sad… https:… https:/…
#>  6 https://da… cis203     Číse… Český s… Druh lesní… https:… https:/…
#>  7 https://da… cis199     Číse… Český s… Druh činno… https:… https:/…
#>  8 https://da… cis202     Číse… Český s… Druh lesní… https:… https:/…
#>  9 https://da… cis7605    Číse… Český s… Specifikac… https:… https:/…
#> 10 https://da… cis206     Číse… Český s… Příčina na… https:… https:/…
#> # … with 592 more rows, and 7 more variables: modified <dttm>, page <chr>,
#> #   periodicity <chr>, periodicity_abb <chr>, start <date>, end <date>,
#> #   keywords <chr>
…
