Get CZSO codelist (registry / číselník) — czso_get_codelist • czso
…
# get a table of relations between two codelists
czso_get_codelist(c(100, 43))
#> # A tibble: 6,258 × 10
#>    KODJAZ TYPVAZ AKRCIS1 KODCIS1 CHODNOTA1 TEXT1 AKRCIS2 KODCIS2 CHODNOTA2 TEXT2
#>    <chr>  <chr>  <chr>   <chr>   <chr>     <chr> <chr>   <chr>   <chr>     <chr>
#>  1 CS     Odvoz… KRAJ_N… 100     3018      Hlav… CISOB   43      554782    Praha
#>  2 CS     Odvoz… KRAJ_N… 100     3026      Stře… CISOB   43      503410    Žito…
#>  3 CS     Odvoz… KRAJ_N… 100     3026      Stře… CISOB   43      505781    Zápy 
#>  4 CS     Odvoz… KRAJ_N… 100     3026      Stře… CISOB   43      512991    Drnek
#>  5 CS     Odvoz… KRAJ_N… 100     3026      Stře… CISOB   43      513032    Kame…
#>  6 CS     Odvoz… KRAJ_N… 100     3026      Stře… CISOB   43      513041    Lhota
#>  7 CS     Odvoz… KRAJ_N… 100     3026      Stře… CISOB   43      513075    Hobš…
#>  8 CS     Odvoz… KRAJ_N… 100     3026      Stře… CISOB   43      513113    Malé…
#>  9 CS     Odvoz… KRAJ_N… 100     3026      Stře… CISOB   43      513130    Dola…
#> 10 CS     Odvoz… KRAJ_N… 100     3026      Stře… CISOB   43      513148    Poln…
#> # … with 6,248 more rows

# equivalent
czso_get_codelist("cis100vaz43")
#> ℹ File already in '/var/folders/24/8k48jl6d249_n_qfxwsl6xvm0000gn/T/Rtmputn3kC/cis100vaz43/', not downloading.
#>   Set `force_redownload = TRUE` if needed.
#> # A tibble: 6,258 × 10
#>    KODJAZ TYPVAZ AKRCIS1 KODCIS1 CHODNOTA1 TEXT1 AKRCIS2 KODCIS2 CHODNOTA2 TEXT2
#>    <chr>  <chr>  <chr>   <chr>   <chr>     <chr> <chr>   <chr>   <chr>     <chr>
#>  1 CS     Odvoz… KRAJ_N… 100     3018      Hlav… CISOB   43      554782    Praha
#>  2 CS     Odvoz… KRAJ_N… 100     3026      Stře… CISOB   43      503410    Žito…
#>  3 CS     Odvoz… KRAJ_N… 100     3026      Stře… CISOB   43      505781    Zápy 
#>  4 CS     Odvoz… KRAJ_N… 100     3026      Stře… CISOB   43      512991    Drnek
#>  5 CS     Odvoz… KRAJ_N… 100     3026      Stře… CISOB   43      513032    Kame…
#>  6 CS     Odvoz… KRAJ_N… 100     3026      Stře… CISOB   43      513041    Lhota
#>  7 CS     Odvoz… KRAJ_N… 100     3026      Stře… CISOB   43      513075    Hobš…
#>  8 CS     Odvoz… KRAJ_N… 100     3026      Stře… CISOB   43      513113    Malé…
#>  9 CS     Odvoz… KRAJ_N… 100     3026      Stře… CISOB   43      513130    Dola…
#> 10 CS     Odvoz… KRAJ_N… 100     3026      Stře… CISOB   43      513148    Poln…
#> # … with 6,248 more rows
…
