Retrieve and read dataset from CZSO — czso_get_table • czso
…
    Do not use this for harvesting datasets from CZSO en masse.

    See also

    Other Core workflow:
czso_filter_catalogue(),
czso_get_catalogue(),
czso_get_codelist()

    Examples

# \donttest{
czso_get_table("110080")
#> # A tibble: 1,260 × 14
#>    idhod  hodnota stapro_kod SPKVANTIL_cis SPKVANTIL_kod POHLAVI_cis POHLAVI_kod
#>    <chr>    <dbl> <chr>      <chr>         <chr>         <chr>       <chr>      
#>  1 73662…   25625 5958       NA            NA            NA          NA         
#>  2 73662…   28431 5958       NA            NA            102         1          
#>  3 73662…   22133 5958       NA            NA            102         2          
#>  4 73662…   21782 5958       7636          Q5            NA          NA         
#>  5 73662…   23533 5958       7636          Q5            102         1          
#>  6 73662…   19731 5958       7636          Q5            102         2          
#>  7 74595…   26033 5958       NA            NA            NA          NA         
#>  8 74595…   28873 5958       NA            NA            102         1          
#>  9 74595…   22496 5958       NA            NA            102         2          
#> 10 74595…   21997 5958       7636          Q5            NA          NA         
#> # ℹ 1,250 more rows
#> # ℹ 7 more variables: rok <int>, uzemi_cis <chr>, uzemi_kod <chr>,
#> #   STAPRO_TXT <chr>, uzemi_txt <chr>, SPKVANTIL_txt <chr>, POHLAVI_txt <chr>
…
